azmet-qaqc
…
[1] "2020-12-30"

3 Basic exploration

Convert to tsibble for exploration

daily_ts <- as_tsibble(daily, key = c(meta_station_id, meta_station_name), index = datetime)

Any gaps in the data?

daily_ts |> scan_gaps()

# A tsibble: 128 x 3 [1D]
# Key:       meta_station_id, meta_station_name [1]
   meta_station_id meta_station_name datetime  
   <chr>           <chr>             <date>    
 1 az14            Yuma N.Gila       2021-06-16
 2 az14            Yuma N.Gila       2021-06-17
 3 az14            Yuma N.Gila       2021-06-18
 4 az14            Yuma N.Gila       2021-06-19
 5 az14            Yuma N.Gila       2021-06-20
 6 az14            Yuma N.Gila       2021-06-21
 7 az14            Yuma N.Gila       2021-06-22
 8 az14            Yuma N.Gila       2021-06-23
 9 az14            Yuma N.Gila       2021-06-24
10 az14            Yuma N.Gila       2021-06-25
# … with 118 more rows
…
Any rows marked as needing review?

daily_ts |> filter(meta_needs_review != 0)

# A tsibble: 131 x 69 [1D]
# Key:       meta_station_id, meta_station_name [29]
   meta_bat_vo…¹ meta_…² meta_…³ meta_…⁴ meta_…⁵ meta_…⁶ meta_…⁷ chill…⁸ chill…⁹
           <dbl>   <dbl>   <dbl>   <dbl> <chr>   <chr>     <dbl>   <dbl>   <dbl>
 1          14.2    13.2    12.5       1 az01    Tucson        0       0      13
 2          14.1    13.1    12.5       1 az01    Tucson        0       0      14
 3          14.1    13.1    12.5       1 az01    Tucson        0       0      15
 4          14.2    13.1    12.5       1 az01    Tucson        0       0      13
 5          14.1    13.1    12.5       1 az01    Tucson        0       0      12
 6          14.1    13.1    12.5       1 az01    Tucson        0       0      15
 7          14.0    13.1    12.6       1 az01    Tucson        0       0      15
 8          14.1    13.1    12.6       1 az01    Tucson        0       0      16
 9          13.7    12.9    12.6       1 az01    Tucson        0       0      23
10          14.4    13.3    12.6       1 az02    Yuma V…       0       0       4
# … with 121 more rows, 60 more variables: chill_hours_32F <dbl>,
#   chill_hours_45F <dbl>, chill_hours_68F <dbl>, chill_hours_7C <dbl>,
#   date_doy <dbl>, date_year <dbl>, datetime <date>, dwpt_mean <dbl>,
#   dwpt_meanF <dbl>, eto_azmet <dbl>, eto_azmet_in <dbl>, eto_pen_mon <dbl>,
#   eto_pen_mon_in <dbl>, heat_units_10C <dbl>, heat_units_13C <dbl>,
#   heat_units_3413C <dbl>, heat_units_45F <dbl>, heat_units_50F <dbl>,
#   heat_units_55F <dbl>, heat_units_7C <dbl>, heat_units_9455F <dbl>, …
…
