Report
…
sol_qa

# A tsibble: 28 x 6 [?]
# Key:       meta_station_id, meta_station_name [28]
   meta_station_id meta_station_name datetime   sol_rad_total forecast flag   
   <chr>           <chr>             <date>             <dbl>    <dbl> <chr>  
 1 az01            Tucson            2022-11-07          30       15.0 extreme
 2 az02            Yuma Valley       2022-11-07          14.4     10.9 <NA>   
 3 az04            Safford           2022-11-07          15.5     14.6 <NA>   
 4 az05            Coolidge          2022-11-07          15.7     11.8 <NA>   
 5 az06            Maricopa          2022-11-07          12.8     12.7 <NA>   
 6 az07            Aguila            2022-11-07          15.2     12.5 <NA>   
 7 az08            Parker            2022-11-07          14.4     13.3 <NA>   
 8 az09            Bonita            2022-11-07          15.4     16.2 <NA>   
 9 az12            Phoenix Greenway  2022-11-07          14.4     12.9 <NA>   
10 az14            Yuma N.Gila       2022-11-07          14.9     11.6 <NA>   
# … with 18 more rows
…
