QA by Forecasting
…
daily_new <- az_daily(start_date = lastdate + 1)

daily <- bind_rows(daily_old, daily_new)

#join to historic data

daily <- bind_rows(daily_hist, daily) 

Find and resolve duplicates

duplicates(daily, key = c(meta_station_id, meta_station_name), index = datetime)

# A tibble: 170 × 69
   date_year date_doy datetime   temp_…¹ temp_…² temp_…³ relat…⁴ relat…⁵ relat…⁶
       <dbl>    <dbl> <date>       <dbl>   <dbl>   <dbl>   <dbl>   <dbl>   <dbl>
 1      2006      365 2006-12-31    17.8    -1.9     6     100      25.8    74.1
 2      2006      365 2006-12-31    17.8    -1.9     6     100      25.8    74.1
 3      2006      365 2006-12-31    19.8     1.7     9.6    69.9    21.4    48.1
 4      2006      365 2006-12-31    19.8     1.7     9.6    69.9    21.4    48.1
 5      2006      365 2006-12-31    20.3     0.9     9.3    78.7    18      50.8
 6      2006      365 2006-12-31    20.3     0.9     9.3    78.7    18      50.8
 7      2006      365 2006-12-31    15.1    -5.7     3.7    90.8    26.1    59.7
 8      2006      365 2006-12-31    15.1    -5.7     3.7    90.8    26.1    59.7
 9      2018      220 2018-08-08    36.7    24      29      66.1    24.5    46.7
10      2018      220 2018-08-08    36.7    24      29      66.1    24.5    46.7
# … with 160 more rows, 60 more variables: vp_deficit_mean <dbl>,
#   sol_rad_total <dbl>, precip_total_mm <dbl>, temp_soil_10cm_maxC <dbl>,
#   temp_soil_10cm_minC <dbl>, temp_soil_10cm_meanC <dbl>,
#   temp_soil_50cm_maxC <dbl>, temp_soil_50cm_minC <dbl>,
#   temp_soil_50cm_meanC <dbl>, wind_spd_mean_mps <dbl>,
#   wind_vector_magnitude <dbl>, wind_vector_dir <dbl>,
#   wind_vector_dir_stand_dev <dbl>, wind_spd_max_mps <dbl>, eto_azmet <dbl>, …
…
Convert to tsibble for exploration

daily_ts <- as_tsibble(daily, key = c(meta_station_id, meta_station_name), index = datetime)

Any rows marked as needing review?

daily_ts |> filter(meta_needs_review != 0)

# A tsibble: 131 x 69 [1D]
# Key:       meta_station_id, meta_station_name [29]
   date_year date_doy datetime   temp_…¹ temp_…² temp_…³ relat…⁴ relat…⁵ relat…⁶
       <dbl>    <dbl> <date>       <dbl>   <dbl>   <dbl>   <dbl>   <dbl>   <dbl>
 1      2022       94 2022-04-04    27.2   10.5     20.0    61.6   15.8     34.0
 2      2022       95 2022-04-05    31.0   10.2     21.7    61.3   13.0     31.1
 3      2022       96 2022-04-06    31.2   11.3     22.7    57.2    9.5     25.5
 4      2022       97 2022-04-07    33.4    7.70    20.9    47.7    3.32    17.4
 5      2022       98 2022-04-08    34.3    6.79    21.4    45.2    2.55    17.2
 6      2022       99 2022-04-09    33.6    9.42    23.8    36.6    3.76    12.7
 7      2022      100 2022-04-10    30.9   16.2     24.0    36.0    9       20.1
 8      2022      101 2022-04-11    29.9   17.6     23.5    40.8   12.7     26.7
 9      2022      174 2022-06-23    42.3   25.6     31.6    47.6   13.9     32.6
10      2022       67 2022-03-08    21.3    5.96    13.7    55.5    8.71    23.4
# … with 121 more rows, 60 more variables: vp_deficit_mean <dbl>,
#   sol_rad_total <dbl>, precip_total_mm <dbl>, temp_soil_10cm_maxC <dbl>,
#   temp_soil_10cm_minC <dbl>, temp_soil_10cm_meanC <dbl>,
#   temp_soil_50cm_maxC <dbl>, temp_soil_50cm_minC <dbl>,
#   temp_soil_50cm_meanC <dbl>, wind_spd_mean_mps <dbl>,
#   wind_vector_magnitude <dbl>, wind_vector_dir <dbl>,
#   wind_vector_dir_stand_dev <dbl>, wind_spd_max_mps <dbl>, eto_azmet <dbl>, …

Check extreme values:

daily_ts |> filter(temp_air_meanC > 200)

# A tsibble: 67 x 69 [1D]
# Key:       meta_station_id, meta_station_name [13]
   date_year date_doy datetime   temp_…¹ temp_…² temp_…³ relat…⁴ relat…⁵ relat…⁶
       <dbl>    <dbl> <date>       <dbl>   <dbl>   <dbl>   <dbl>   <dbl>   <dbl>
 1      2015       14 2015-01-14   999       999     999     999     999     999
 2      2015       15 2015-01-15    19.4     999     999     999     999     999
 3      2017      204 2017-07-23   999       999     999     999     999     999
 4      2017      205 2017-07-24   999       999     999     999     999     999
 5      2017      206 2017-07-25   999       999     999     999     999     999
 6      2017      207 2017-07-26   999       999     999     999     999     999
 7      2017      208 2017-07-27   999       999     999     999     999     999
 8      2016      357 2016-12-22   999       999     999     999     999     999
 9      2016      358 2016-12-23   999       999     999     999     999     999
10      2016      359 2016-12-24   999       999     999     999     999     999
# … with 57 more rows, 60 more variables: vp_deficit_mean <dbl>,
#   sol_rad_total <dbl>, precip_total_mm <dbl>, temp_soil_10cm_maxC <dbl>,
#   temp_soil_10cm_minC <dbl>, temp_soil_10cm_meanC <dbl>,
#   temp_soil_50cm_maxC <dbl>, temp_soil_50cm_minC <dbl>,
#   temp_soil_50cm_meanC <dbl>, wind_spd_mean_mps <dbl>,
#   wind_vector_magnitude <dbl>, wind_vector_dir <dbl>,
#   wind_vector_dir_stand_dev <dbl>, wind_spd_max_mps <dbl>, eto_azmet <dbl>, …

Looks like historic data uses 999 for NA probably. I’ll set those to NA

daily_ts <- daily_ts |> 
  mutate(across(where(is.numeric), \(x) if_else(x == 999, NA_real_, x)))

Any gaps in the data?

daily_ts |> scan_gaps()

# A tsibble: 268 x 3 [1D]
# Key:       meta_station_id, meta_station_name [13]
   meta_station_id meta_station_name datetime  
   <chr>           <chr>             <date>    
 1 az04            Safford           2009-01-17
 2 az08            Parker            2017-03-05
 3 az08            Parker            2017-03-06
 4 az08            Parker            2017-03-07
 5 az08            Parker            2017-03-08
 6 az08            Parker            2017-03-09
 7 az08            Parker            2017-03-10
 8 az08            Parker            2017-03-11
 9 az08            Parker            2019-02-26
10 az08            Parker            2019-02-27
# … with 258 more rows
…
Definitely some weird zeroes. Maybe a super cloudy day, but probably errors.

Code

daily_ts |> 
  filter(sol_rad_total < 1 & !is.na(sol_rad_total)) |> 
  select(datetime, sol_rad_total, meta_station_id, meta_needs_review) |> 
  arrange(sol_rad_total)

# A tsibble: 35 x 5 [1D]
# Key:       meta_station_id, meta_station_name [10]
   datetime   sol_rad_total meta_station_id meta_needs_review meta_station_name
   <date>             <dbl> <chr>                       <dbl> <chr>            
 1 2019-01-14             0 az14                           NA Yuma N. Gila     
 2 2021-02-04             0 az23                            0 Harquahala       
 3 2021-02-05             0 az23                            0 Harquahala       
 4 2021-02-06             0 az23                            0 Harquahala       
 5 2021-02-08             0 az23                            0 Harquahala       
 6 2021-02-09             0 az23                            0 Harquahala       
 7 2021-02-12             0 az23                            0 Harquahala       
 8 2021-02-13             0 az23                            0 Harquahala       
 9 2021-02-14             0 az23                            0 Harquahala       
10 2021-02-15             0 az23                            0 Harquahala       
# … with 25 more rows
…
Here we’d need to deal with the possibility of multiple flags per observation

left_join(daily_ts_sub, flags, by = c("meta_station_id", "meta_station_name", "datetime")) |> 
  arrange(desc(datetime)) |> 
  select(outlier, extreme, everything())

Warning: Current temporal ordering may yield unexpected results.
ℹ Suggest to sort by `meta_station_id`, `meta_station_name`, `datetime` first.
Current temporal ordering may yield unexpected results.
ℹ Suggest to sort by `meta_station_id`, `meta_station_name`, `datetime` first.
Current temporal ordering may yield unexpected results.
ℹ Suggest to sort by `meta_station_id`, `meta_station_name`, `datetime` first.

# A tsibble: 28,952 x 72 [1D]
# Key:       meta_station_id, meta_station_name [4]
   outlier    extreme date_…¹ date_…² datetime   temp_…³ temp_…⁴ temp_…⁵ relat…⁶
   <chr>      <chr>     <dbl>   <dbl> <date>       <dbl>   <dbl>   <dbl>   <dbl>
 1 sol_rad_t… <NA>       2022     298 2022-10-25    24.7     2.1    13.2      89
 2 <NA>       <NA>       2022     298 2022-10-25    24.6     5.6    14.7      81
 3 <NA>       <NA>       2022     298 2022-10-25    24.6     4      13.5      63
 4 <NA>       <NA>       2022     298 2022-10-25    25.2     3.7    14.3      82
 5 <NA>       <NA>       2022     297 2022-10-24    19.4     6.3    14.2      66
 6 <NA>       <NA>       2022     297 2022-10-24    21.6    10.4    15.6      54
 7 <NA>       <NA>       2022     297 2022-10-24    20       6.8    13        49
 8 <NA>       <NA>       2022     297 2022-10-24    23.8     8.6    15.4      46
 9 <NA>       <NA>       2022     296 2022-10-23    23.9    14.5    19.7      86
10 <NA>       <NA>       2022     296 2022-10-23    24.9    17.4    20.7      77
# … with 28,942 more rows, 63 more variables: relative_humidity_min <dbl>,
#   relative_humidity_mean <dbl>, vp_deficit_mean <dbl>, sol_rad_total.x <dbl>,
#   precip_total_mm <dbl>, temp_soil_10cm_maxC <dbl>,
#   temp_soil_10cm_minC <dbl>, temp_soil_10cm_meanC <dbl>,
#   temp_soil_50cm_maxC <dbl>, temp_soil_50cm_minC <dbl>,
#   temp_soil_50cm_meanC <dbl>, wind_spd_mean_mps <dbl>,
#   wind_vector_magnitude <dbl>, wind_vector_dir <dbl>, …

5 Learning about forecasting

5.1 Timeseries decomposition

Timeseries decomposition doesn’t work when there is missing data. There are NAs for Harquahala and Bowie stations, so I guess I’ll have to omit those until I figure out how to do this with missing data.

daily_ts_sub |> filter(is.na(sol_rad_total))

# A tsibble: 22 x 69 [1D]
# Key:       meta_station_id, meta_station_name [2]
   date_year date_doy datetime   temp_…¹ temp_…² temp_…³ relat…⁴ relat…⁵ relat…⁶
       <dbl>    <dbl> <date>       <dbl>   <dbl>   <dbl>   <dbl>   <dbl>   <dbl>
 1      2016      357 2016-12-22    NA      NA        NA      NA      NA      NA
 2      2016      358 2016-12-23    NA      NA        NA      NA      NA      NA
 3      2016      359 2016-12-24    NA      NA        NA      NA      NA      NA
 4      2016      360 2016-12-25    NA      NA        NA      NA      NA      NA
 5      2016      361 2016-12-26    NA      NA        NA      NA      NA      NA
 6      2017        1 2017-01-01    12.7     4.4      NA      NA      NA      NA
 7      2017        2 2017-01-02    11.9     4.6      NA      NA      NA      NA
 8      2017        3 2017-01-03    13       1.2      NA      NA      NA      NA
 9      2017        5 2017-01-05    NA      NA        NA      NA      NA      NA
10      2017        6 2017-01-06    NA      NA        NA      NA      NA      NA
# … with 12 more rows, 60 more variables: vp_deficit_mean <dbl>,
#   sol_rad_total <dbl>, precip_total_mm <dbl>, temp_soil_10cm_maxC <dbl>,
#   temp_soil_10cm_minC <dbl>, temp_soil_10cm_meanC <dbl>,
#   temp_soil_50cm_maxC <dbl>, temp_soil_50cm_minC <dbl>,
#   temp_soil_50cm_meanC <dbl>, wind_spd_mean_mps <dbl>,
#   wind_vector_magnitude <dbl>, wind_vector_dir <dbl>,
#   wind_vector_dir_stand_dev <dbl>, wind_spd_max_mps <dbl>, eto_azmet <dbl>, …

dcmp <- 
  daily_ts_sub |> 
  filter(meta_station_id == first(meta_station_id)) |> #just use one station for now
  model(stl = STL(sol_rad_total ~ season("1_year"))) |> 
  filter(meta_station_id %in% c("az01", "az06"))
components(dcmp)

# A dable: 7,238 x 9 [1D]
# Key:     meta_station_id, meta_station_name, .model [1]
# :        sol_rad_total = trend + season_1_year + remainder
   meta_statio…¹ meta_…² .model datetime   sol_r…³ trend seaso…⁴ remai…⁵ seaso…⁶
   <chr>         <chr>   <chr>  <date>       <dbl> <dbl>   <dbl>   <dbl>   <dbl>
 1 az01          Tucson  stl    2003-01-01   12.4   19.3   -8.52   1.58     20.9
 2 az01          Tucson  stl    2003-01-02   12.7   19.3   -8.07   1.49     20.8
 3 az01          Tucson  stl    2003-01-03   12.7   19.3   -9.00   2.40     21.7
 4 az01          Tucson  stl    2003-01-04   12.7   19.3   -8.72   2.10     21.4
 5 az01          Tucson  stl    2003-01-05   12.6   19.3   -8.26   1.53     20.8
 6 az01          Tucson  stl    2003-01-06    6.86  19.3  -10.4   -2.09     17.2
 7 az01          Tucson  stl    2003-01-07   12.0   19.3   -8.87   1.51     20.8
 8 az01          Tucson  stl    2003-01-08    7.41  19.3   -9.26  -2.64     16.7
 9 az01          Tucson  stl    2003-01-09   12.1   19.3   -7.52   0.295    19.6
10 az01          Tucson  stl    2003-01-10   12.7   19.3   -7.73   1.12     20.4
# … with 7,228 more rows, and abbreviated variable names ¹​meta_station_id,
#   ²​meta_station_name, ³​sol_rad_total, ⁴​season_1_year, ⁵​remainder,
#   ⁶​season_adjust
…
1 error encountered for dcmp
[1] promise already under evaluation: recursive default argument reference or earlier problems?

Warning: 2 errors (1 unique) encountered for stlf
[2] Problem while computing `cmp = map(.fit, components)`.

5.4 Forecasting methods

Produce forecasts

fit_tslm |> forecast(h = "3 months")

# A fable: 364 x 6 [1D]
# Key:     meta_station_id, meta_station_name, .model [4]
   meta_station_id meta_station_name .model           datetime   sol_rad…¹ .mean
   <chr>           <chr>             <chr>            <date>        <dist> <dbl>
 1 az01            Tucson            TSLM(sol_rad_to… 2022-10-26 N(21, 48)  20.7
 2 az01            Tucson            TSLM(sol_rad_to… 2022-10-27 N(21, 48)  20.7
 3 az01            Tucson            TSLM(sol_rad_to… 2022-10-28 N(21, 48)  20.7
 4 az01            Tucson            TSLM(sol_rad_to… 2022-10-29 N(21, 48)  20.7
 5 az01            Tucson            TSLM(sol_rad_to… 2022-10-30 N(21, 48)  20.7
 6 az01            Tucson            TSLM(sol_rad_to… 2022-10-31 N(21, 48)  20.7
 7 az01            Tucson            TSLM(sol_rad_to… 2022-11-01 N(21, 48)  20.7
 8 az01            Tucson            TSLM(sol_rad_to… 2022-11-02 N(21, 48)  20.7
 9 az01            Tucson            TSLM(sol_rad_to… 2022-11-03 N(21, 48)  20.7
10 az01            Tucson            TSLM(sol_rad_to… 2022-11-04 N(21, 48)  20.7
# … with 354 more rows, and abbreviated variable name ¹​sol_rad_total
…
Could use bootstrapped residuals.

fc <- fit_snaive |> forecast(h = "1 month", bootstrap = TRUE)

Warning: Non-integer lag orders for random walk models are not supported. Rounding to the nearest integer.
Non-integer lag orders for random walk models are not supported. Rounding to the nearest integer.
Non-integer lag orders for random walk models are not supported. Rounding to the nearest integer.
Non-integer lag orders for random walk models are not supported. Rounding to the nearest integer.

fc

# A fable: 120 x 6 [1D]
# Key:     meta_station_id, meta_station_name, .model [4]
   meta_station_id meta_station_name .model        datetime   sol_rad_to…¹ .mean
   <chr>           <chr>             <chr>         <date>           <dist> <dbl>
 1 az01            Tucson            "SNAIVE(sol_… 2022-10-26 sample[5000]  16.6
 2 az01            Tucson            "SNAIVE(sol_… 2022-10-27 sample[5000]  18.1
 3 az01            Tucson            "SNAIVE(sol_… 2022-10-28 sample[5000]  18.1
 4 az01            Tucson            "SNAIVE(sol_… 2022-10-29 sample[5000]  17.8
 5 az01            Tucson            "SNAIVE(sol_… 2022-10-30 sample[5000]  17.1
 6 az01            Tucson            "SNAIVE(sol_… 2022-10-31 sample[5000]  16.7
 7 az01            Tucson            "SNAIVE(sol_… 2022-11-01 sample[5000]  16.5
 8 az01            Tucson            "SNAIVE(sol_… 2022-11-02 sample[5000]  15.3
 9 az01            Tucson            "SNAIVE(sol_… 2022-11-03 sample[5000]  17.0
10 az01            Tucson            "SNAIVE(sol_… 2022-11-04 sample[5000]  16.8
# … with 110 more rows, and abbreviated variable name ¹​sol_rad_total
…
